{
  "name": "Product",
  "fields": [
    {
      "fieldName": "name",
      "fieldType": "String",
      "fieldValidateRules": [
        "required"
      ]
    },
    {
      "fieldName": "stock",
      "fieldType": "Integer",
      "fieldValidateRules": [
        "required",
        "min"
      ],
      "fieldValidateRulesMin": "0"
    },
    {
      "fieldName": "price",
      "fieldType": "Float",
      "fieldValidateRules": [
        "required",
        "min"
      ],
      "fieldValidateRulesMin": "0.0"
    },
    {
      "fieldName": "discount",
      "fieldType": "Float",
      "fieldValidateRules": [
        "min",
        "max"
      ],
      "fieldValidateRulesMin": "0.0",
      "fieldValidateRulesMax": "100.0"
    },
    {
      "fieldName": "kiloWeight",
      "fieldType": "Float",
      "fieldValidateRules": [
        "required",
        "min"
      ],
      "fieldValidateRulesMin": "0.0"
    },
    {
      "fieldName": "imageUrl",
      "fieldType": "String"
    }
  ],
  "relationships": [
    {
      "relationshipType": "many-to-many",
      "otherEntityName": "tag",
      "otherEntityRelationshipName": "product",
      "relationshipName": "tag",
      "otherEntityField": "name",
      "ownerSide": true
    },
    {
      "relationshipType": "many-to-one",
      "otherEntityName": "category",
      "otherEntityRelationshipName": "products",
      "relationshipValidateRules": "required",
      "relationshipName": "category",
      "otherEntityField": "id"
    }
  ],
  "changelogDate": "20200909074257",
  "entityTableName": "product",
  "dto": "no",
  "pagination": "no",
  "service": "no",
  "jpaMetamodelFiltering": false,
  "fluentMethods": true,
  "readOnly": false,
  "embedded": false,
  "clientRootFolder": "",
  "applications": "*"
}
